Peer-graded assignment
…
About the Mean and Median

mean.step<-act%>%
  group_by(date)%>%
  summarise(mean(steps,na.rm = TRUE))
median.step<-act%>%
  group_by(date)%>%
  summarise(median(steps,na.rm = TRUE))

Data Frame showing Mean and Median

mean.step

## # A tibble: 61 x 2
##    date       `mean(steps, na.rm = TRUE)`
##    <chr>                            <dbl>
##  1 2012-10-01                     NaN    
##  2 2012-10-02                       0.438
##  3 2012-10-03                      39.4  
##  4 2012-10-04                      42.1  
##  5 2012-10-05                      46.2  
##  6 2012-10-06                      53.5  
##  7 2012-10-07                      38.2  
##  8 2012-10-08                     NaN    
##  9 2012-10-09                      44.5  
## 10 2012-10-10                      34.4  
## # ... with 51 more rows

median.step

## # A tibble: 61 x 2
##    date       `median(steps, na.rm = TRUE)`
##    <chr>                              <dbl>
##  1 2012-10-01                            NA
##  2 2012-10-02                             0
##  3 2012-10-03                             0
##  4 2012-10-04                             0
##  5 2012-10-05                             0
##  6 2012-10-06                             0
##  7 2012-10-07                             0
##  8 2012-10-08                            NA
##  9 2012-10-09                             0
## 10 2012-10-10                             0
## # ... with 51 more rows
…
Showing the new mean and median of new.act

mean.step2<-new.act%>%
  group_by(date)%>%
  summarise(mean(steps,na.rm = TRUE))
names(mean.step2)<-c("date","steps")
median.step2<-new.act%>%
  group_by(date)%>%
  summarise(median(steps,na.rm = TRUE))

Data Frame showing Mean and Median

mean.step2

## # A tibble: 61 x 2
##    date        steps
##    <chr>       <dbl>
##  1 2012-10-01 37.4  
##  2 2012-10-02  0.438
##  3 2012-10-03 39.4  
##  4 2012-10-04 42.1  
##  5 2012-10-05 46.2  
##  6 2012-10-06 53.5  
##  7 2012-10-07 38.2  
##  8 2012-10-08 37.4  
##  9 2012-10-09 44.5  
## 10 2012-10-10 34.4  
## # ... with 51 more rows

median.step2

## # A tibble: 61 x 2
##    date       `median(steps, na.rm = TRUE)`
##    <chr>                              <dbl>
##  1 2012-10-01                          37.4
##  2 2012-10-02                           0  
##  3 2012-10-03                           0  
##  4 2012-10-04                           0  
##  5 2012-10-05                           0  
##  6 2012-10-06                           0  
##  7 2012-10-07                           0  
##  8 2012-10-08                          37.4
##  9 2012-10-09                           0  
## 10 2012-10-10                           0  
## # ... with 51 more rows
…
